{
    "label": "Aptitudes",
    "mapping": {
        "types": "data.types",
        "description": "data.description",
        "book_reference": "data.book_reference"
    },
    "entries": [
        {
            "id": "Ally [Name]",
            "name": "Allié [Nom]",
            "types": "Relations",
            "description": "",
            "book_reference": "Livre de Règles p.102"
        },
        {
            "id": "Ambidexterity",
            "name": "Ambidextrie",
            "types": "Physique",
            "description": "",
            "book_reference": "Livre de Règles p.102"
        },
        {
            "id": "Benten’s Blessing",
            "name": "Bénédiction de Benten",
            "types": "Relations, Spirituel",
            "description": "",
            "book_reference": "Livre de Règles p.103"
        },
        {
            "id": "Bishamon’s Blessing",
            "name": "Bénédiction de Bishamon",
            "types": "Physique, Spirituel",
            "description": "",
            "book_reference": "Livre de Règles p.103"
        },
        {
            "id": "Blackmail on [Name]",
            "name": "Chantage contre [Nom d’un personnage]",
            "types": "Relations",
            "description": "",
            "book_reference": "Livre de Règles p.104"
        },
        {
            "id": "Blessed Lineage",
            "name": "Lignée prestigieuse",
            "types": "Relations, Spirituel",
            "description": "",
            "book_reference": "Livre de Règles p.106"
        },
        {
            "id": "Blissful Betrothal",
            "name": "Fiançailles bienheureuses",
            "types": "Relations",
            "description": "",
            "book_reference": "Livre de Règles p.105"
        },
        {
            "id": "Daikoku’s Blessing",
            "name": "Bénédiction de Daikoku",
            "types": "Relations, Spirituel",
            "description": "",
            "book_reference": "Livre de Règles p.103"
        },
        {
            "id": "Dangerous Allure",
            "name": "Beauté fatale",
            "types": "Physique, Relations",
            "description": "",
            "book_reference": "Livre de Règles p.102"
        },
        {
            "id": "Ebisu’s Blessing",
            "name": "Bénédiction d’Ebisu",
            "types": "Physique, Spirituel",
            "description": "",
            "book_reference": "Livre de Règles p.103"
        },
        {
            "id": "Famously Honest",
            "name": "Notoirement honnête",
            "types": "Relations, Renommée",
            "description": "",
            "book_reference": "Livre de Règles p.107"
        },
        {
            "id": "Famously Lucky",
            "name": "Notoirement chanceux",
            "types": "Relations, Renommée",
            "description": "",
            "book_reference": "Livre de Règles p.106"
        },
        {
            "id": "Famously Reliable",
            "name": "Notoirement fiable",
            "types": "Relations, Renommée",
            "description": "",
            "book_reference": "Livre de Règles p.107"
        },
        {
            "id": "Famously Successful",
            "name": "Notoirement efficace",
            "types": "Relations, Renommée",
            "description": "",
            "book_reference": "Livre de Règles p.106"
        },
        {
            "id": "Famously Wealthy",
            "name": "Notoirement riche",
            "types": "Relations, Renommée",
            "description": "",
            "book_reference": "Livre de Règles p.107"
        },
        {
            "id": "Flexibility",
            "name": "Souplesse",
            "types": "Physique",
            "description": "",
            "book_reference": "Livre de Règles p.109"
        },
        {
            "id": "Fukurokujin’s Blessing",
            "name": "Bénédiction de Fukurokujin",
            "types": "Mental, Spirituel",
            "description": "",
            "book_reference": "Livre de Règles p.104"
        },
        {
            "id": "Indomitable Will",
            "name": "Volonté indomptable",
            "types": "Mental, Relations",
            "description": "",
            "book_reference": "Livre de Règles p.110"
        },
        {
            "id": "Jurojin’s Blessing",
            "name": "Bénédiction de Jurōjin",
            "types": "Physique, Spirituel",
            "description": "",
            "book_reference": "Livre de Règles p.104"
        },
        {
            "id": "Keen Balance",
            "name": "Equilibre exceptionnel",
            "types": "Mental, Physique",
            "description": "",
            "book_reference": "Livre de Règles p.104"
        },
        {
            "id": "Keen Hearing",
            "name": "Ouïe exceptionnelle",
            "types": "Mental, Physique",
            "description": "",
            "book_reference": "Livre de Règles p.108"
        },
        {
            "id": "Keen Sight",
            "name": "Vue exceptionnelle",
            "types": "Mental, Physique",
            "description": "",
            "book_reference": "Livre de Règles p.110"
        },
        {
            "id": "Keen Smell",
            "name": "Odorat exceptionnel",
            "types": "Mental, Physique",
            "description": "",
            "book_reference": "Livre de Règles p.108"
        },
        {
            "id": "Karmic Tie",
            "name": "Lien karmique",
            "types": "Relations, Spirituel",
            "description": "",
            "book_reference": "Livre de Règles p.105"
        },
        {
            "id": "Kisshōten’s Blessing",
            "name": "Bénédiction de Kisshōten",
            "types": "Physique, Spirituel",
            "description": "",
            "book_reference": "Livre de Règles p.104"
        },
        {
            "id": "Large Stature",
            "name": "Stature imposante",
            "types": "Physique",
            "description": "",
            "book_reference": "Livre de Règles p.110"
        },
        {
            "id": "Paragon of Compassion",
            "name": "Parangon de Compassion",
            "types": "Mental, Vertu",
            "description": "",
            "book_reference": "Livre de Règles p.108"
        },
        {
            "id": "Paragon of Courage",
            "name": "Parangon de Courage",
            "types": "Mental, Vertu",
            "description": "",
            "book_reference": "Livre de Règles p.108"
        },
        {
            "id": "Paragon of Courtesy",
            "name": "Parangon de Courtoisie",
            "types": "Mental, Vertu",
            "description": "",
            "book_reference": "Livre de Règles p.108"
        },
        {
            "id": "Paragon of Duty and Loyalty",
            "name": "Parangon de Devoir et loyauté",
            "types": "Mental, Vertu",
            "description": "",
            "book_reference": "Livre de Règles p.108"
        },
        {
            "id": "Paragon of Honor",
            "name": "Parangon d'Honneur",
            "types": "Mental, Vertu",
            "description": "",
            "book_reference": "Livre de Règles p.108"
        },
        {
            "id": "Paragon of Righteousness",
            "name": "Parangon de Droiture",
            "types": "Mental, Vertu",
            "description": "",
            "book_reference": "Livre de Règles p.108"
        },
        {
            "id": "Paragon of Sincerity",
            "name": "Parangon de Sincérité",
            "types": "Mental, Vertu",
            "description": "",
            "book_reference": "Livre de Règles p.108"
        },
        {
            "id": "Precise Memory",
            "name": "Excellente mémoire",
            "types": "Mental",
            "description": "",
            "book_reference": "Livre de Règles p.105"
        },
        {
            "id": "Quick Reflexes",
            "name": "Réflexes fulgurants",
            "types": "Physique, Relations",
            "description": "",
            "book_reference": "Livre de Règles p.109"
        },
        {
            "id": "Seasoned",
            "name": "Aguerri",
            "types": "Mental, Relations",
            "description": "",
            "book_reference": "Livre de Règles p.101"
        },
        {
            "id": "Sixth Sense",
            "name": "Sixième sens",
            "types": "Spirituel",
            "description": "",
            "book_reference": "Livre de Règles p.109"
        },
        {
            "id": "Small Stature",
            "name": "Petit",
            "types": "Physique",
            "description": "",
            "book_reference": "Livre de Règles p.108"
        },
        {
            "id": "Subtle Observer",
            "name": "Observateur subtil",
            "types": "Mental, Relations",
            "description": "",
            "book_reference": "Livre de Règles p.107"
        },
        {
            "id": "Support of [One Group]",
            "name": "Soutien de [un groupe]",
            "types": "Relations",
            "description": "",
            "book_reference": "Livre de Règles p.109"
        },
        {
            "id": "Talented Herbalist",
            "name": "Talented Herbalist (WIP)",
            "types": "Mental",
            "description": "",
            "book_reference": "Les Royaumes Célestes"
        },
        {
            "id": "Famously Kind",
            "name": "Famously Kind (WIP)",
            "types": "Relations, Renommée",
            "description": "",
            "book_reference": "Les Royaumes Célestes"
        },
        {
            "id": "Portentous Birth",
            "name": "Portentous Birth (WIP)",
            "types": "Relations, Spirituel",
            "description": "",
            "book_reference": "Les Royaumes Célestes"
        },
        {
            "id": "Affect of Harmlessness",
            "name": "Apparence inoffensive",
            "types": "Relations",
            "description": "",
            "book_reference": "Les Cours de Pierre p.99"
        },
        {
            "id": "Famously Neutral",
            "name": "Notoirement impartial",
            "types": "Relations, Renommée",
            "description": "",
            "book_reference": "Les Cours de Pierre p.99"
        },
        {
            "id": "Well Connected in {City}",
            "name": "Relations à [une ville]",
            "types": "Relations",
            "description": "",
            "book_reference": "Les Cours de Pierre p.99"
        },
        {
            "id": "Animal Trainer",
            "name": "Dresseur",
            "types": "Mental, Relations",
            "description": "",
            "book_reference": "L’Empire d’Émeraude p.242"
        },
        {
            "id": "Expert Tracker",
            "name": "Pisteur expert",
            "types": "Mental, Physique",
            "description": "",
            "book_reference": "L’Empire d’Émeraude p.242"
        },
        {
            "id": "Criminal Connections",
            "name": "Liens avec la pègre",
            "types": "Relations",
            "description": "",
            "book_reference": "L’Empire d’Émeraude p.242"
        },
        {
            "id": "Friend of the brotherhood",
            "name": "Ami de la confrérie",
            "types": "Relations",
            "description": "",
            "book_reference": "L’Empire d’Émeraude p.242"
        },
        {
            "id": "Well Connected",
            "name": "Relations influentes",
            "types": "Relations",
            "description": "",
            "book_reference": "L’Empire d’Émeraude p.243"
        },
        {
            "id": "Kuge Lineage",
            "name": "Lignée Kuge",
            "types": "Relations",
            "description": "",
            "book_reference": "L’Empire d’Émeraude p.243"
        },
        {
            "id": "Hero of [Village]",
            "name": "Héros de [Village]",
            "types": "Relations, Renommée",
            "description": "",
            "book_reference": "L’Empire d’Émeraude p.243"
        },
        {
            "id": "Spiritual Protector",
            "name": "Protecteur spirituel",
            "types": "Spirituel",
            "description": "",
            "book_reference": "L’Empire d’Émeraude p.243"
        },
        {
            "id": "Ardent Leader",
            "name": "Ardent Leader (WIP)",
            "types": "Mental, Relations",
            "description": "",
            "book_reference": "La Voie des Vagues"
        },
        {
            "id": "Dashing Scar",
            "name": "Dashing Scar (WIP)",
            "types": "Relations",
            "description": "",
            "book_reference": "La Voie des Vagues"
        },
        {
            "id": "Lucky Hunter",
            "name": "Lucky Hunter (WIP)",
            "types": "Physique, Spirituel",
            "description": "",
            "book_reference": "La Voie des Vagues"
        },
        {
            "id": "Scrounger",
            "name": "Scrounger (WIP)",
            "types": "Mental, Relations",
            "description": "",
            "book_reference": "La Voie des Vagues"
        },
        {
            "id": "Scrappy",
            "name": "Scrappy (WIP)",
            "types": "Mental, Physique",
            "description": "",
            "book_reference": "La Voie des Vagues"
        },
        {
            "id": "Urbane and Wroldly",
            "name": "Urbane and Wroldly (WIP)",
            "types": "Physique, Relations",
            "description": "",
            "book_reference": "La Voie des Vagues"
        },
        {
            "id": "Dead Eyes",
            "name": "Regard voilé",
            "types": "Mental",
            "description": "",
            "book_reference": "L’Outremonde p.96"
        },
        {
            "id": "Light Sleeper",
            "name": "Sommeil léger",
            "types": "Physique",
            "description": "",
            "book_reference": "L’Outremonde p.96"
        },
        {
            "id": "Friend of the Nezumi",
            "name": "Ami des nezumi",
            "types": "Relations",
            "description": "",
            "book_reference": "L’Outremonde p.96"
        },
        {
            "id": "Blood of Osano-Wo",
            "name": "Sang d’Osano-wo",
            "types": "Mental, Spirituel",
            "description": "",
            "book_reference": "Le Clan de la Mante p.7"
        },
        {
            "id": "Sea Legs",
            "name": "Pied marin",
            "types": "Physique",
            "description": "",
            "book_reference": "Le Clan de la Mante p.7"
        },
        {
            "id": "Guiding Ancestor",
            "name": "Guiding Ancestor (WIP)",
            "types": "Spiritual",
            "description": "",
            "book_reference": "Les Champs de la Victoire"
        },
        {
            "id": "Traditional Adherent",
            "name": "Traditional Adherent (WIP)",
            "types": "Mental",
            "description": "",
            "book_reference": "Les Champs de la Victoire"
        }
    ]
}
